<svg xmlns="http://www.w3.org/2000/svg" width="23.339" height="21.405" viewBox="0 0 23.339 21.405">
  <g id="Icon_feather-filter" data-name="Icon feather-filter" transform="translate(-1 -2.5)" fill="#fff" stroke-linecap="round" stroke-linejoin="round">
    <path d="M 15.60351657867432 23.52330589294434 L 14.15630626678467 22.79970741271973 L 10.28846645355225 20.86578750610352 L 9.735676765441895 20.58938598632812 L 9.735676765441895 19.97135734558105 L 9.735676765441895 14.01358795166016 L 2.236426591873169 5.145726680755615 L 0.8446967005729675 3.499996662139893 L 2.999996662139893 3.499996662139893 L 22.33919715881348 3.499996662139893 L 24.49449729919434 3.499996662139893 L 23.1027660369873 5.145726680755615 L 15.60351657867432 14.01358795166016 L 15.60351657867432 21.90527725219727 L 15.60351657867432 23.52330589294434 Z" stroke="none"/>
    <path d="M 2.999996185302734 4.499996185302734 L 10.73567676544189 13.64743709564209 L 10.73567676544189 19.97135734558105 L 14.60351657867432 21.90527725219727 L 14.60351657867432 13.64743709564209 L 22.33919715881348 4.499996185302734 L 2.999996185302734 4.499996185302734 M 2.999996185302734 2.499996185302734 L 22.33919715881348 2.499996185302734 C 23.11784744262695 2.499996185302734 23.82571601867676 2.95191764831543 24.1534366607666 3.658246994018555 C 24.48114585876465 4.364566802978516 24.36912727355957 5.196897506713867 23.86633682250977 5.791446685791016 L 16.603515625 14.37973022460938 L 16.603515625 21.90527725219727 C 16.603515625 22.59843635559082 16.2446174621582 23.24216651916504 15.6549768447876 23.60657691955566 C 15.06534576416016 23.97098731994629 14.32906723022461 24.00411605834961 13.70908641815186 23.69412612915039 L 9.841246604919434 21.76020622253418 C 9.163677215576172 21.42142677307129 8.735675811767578 20.72889709472656 8.735675811767578 19.97135734558105 L 8.735675811767578 14.37973022460938 L 1.472856521606445 5.791446685791016 C 0.9700660705566406 5.196897506713867 0.8580474853515625 4.364566802978516 1.185756683349609 3.658246994018555 C 1.513477325439453 2.95191764831543 2.221345901489258 2.499996185302734 2.999996185302734 2.499996185302734 Z" stroke="none" fill="#0f137a"/>
  </g>
</svg>
